<svg xmlns="http://www.w3.org/2000/svg" width="70" height="70" viewBox="0 0 70 70">
    <g fill="none" fill-rule="evenodd">
        <g fill-rule="nonzero">
            <g>
                <g>
                    <g>
                        <path fill="#00DBC7" d="M0 0H20V20H0zM25 0H45V20H25z" transform="translate(-244.000000, -302.000000) translate(165.000000, 247.000000) translate(79.000000, 55.000000)"/>
                        <path fill="#00B1FF" d="M0 25H20V45H0zM25 25H45V45H25z" transform="translate(-244.000000, -302.000000) translate(165.000000, 247.000000) translate(79.000000, 55.000000)"/>
                        <path fill="#1F6FE5" d="M0 50H20V70H0z" transform="translate(-244.000000, -302.000000) translate(165.000000, 247.000000) translate(79.000000, 55.000000)"/>
                        <path fill="#00DBC7" d="M50 0H70V20H50z" transform="translate(-244.000000, -302.000000) translate(165.000000, 247.000000) translate(79.000000, 55.000000)"/>
                    </g>
                </g>
            </g>
        </g>
    </g>
</svg>
